0.24,114.38,871.58
167.48,184.57,840.82
110.84,61.04,1023.8
77.64,37.11,1074.83
63.84,50.66,1017.21
65.06,26.49,1054.81
86.06,44.07,994.02
114.01,67.14,1006.1
94.97,25.88,1043.95
80.81,17.94,1092.41
74.46,20.39,1079.96
83.01,16.11,1096.19
77.27,-40.89,1176.03
94.97,3.17,1112.67
85.45,-9.4,1122.56
113.16,71.17,1021.12
30.52,12.21,1110.84
50.78,-1.59,1126.34
34.06,-109.5,1305.54
109.86,-47.24,1236.69
87.77,162.96,802.49
73.97,72.39,965.21
102.17,178.71,781.86
133.67,79.1,940.43
114.01,88.75,923.95
66.89,42.97,1051.88
77.51,-0.98,1021.97
101.07,13.43,1118.04
58.84,-62.13,1186.77
159.91,98.27,1002.93
25.63,122.8,903.56
89.6,98.51,938.48
96.56,32.71,1066.04
106.69,100.22,939.09
101.68,63.72,1003.91
70.31,65.31,998.9
79.47,73.97,974.73
83.37,30.15,1061.52
99.73,36.01,1049.07
87.65,-5.86,1126.83
89.72,34.06,1058.84
85.45,-0.37,1123.9
80.08,13.55,1080.2
66.28,30.15,1050.05
94.36,-38.09,1136.96
63.23,-65.06,1253.54
76.29,-73.97,1241.33
100.83,-60.67,1222.66
114.5,126.22,897.09
76.05,110.23,910.64
94.36,122.19,883.91
94.73,67.26,1004.39
77.03,-27.47,1165.77
74.58,4.76,1087.65
147.95,-79.1,1205.32
144.78,-120.24,1236.94
25.63,2.69,1131.84
45.9,-7.2,1051.39
81.79,37.48,1075.68
117.55,163.21,852.05
38.57,70.31,964.36
83.74,117.43,898.07
83.98,7.69,1100.22
91.19,62.5,997.19
108.4,-67.99,1243.53
77.64,-114.87,1321.29
60.42,-21.85,1140.5
72.39,-51.76,1195.07
90.58,-0.12,1106.32
81.54,3.42,1097.05
85.08,18.31,1081.79
85.94,1.34,1119.26
72.02,41.38,1036.87
182.01,45.41,1028.08
84.11,45.04,1060.42
122.07,36.01,1017.46
110.6,98.02,950.2
103.52,84.11,957.28
71.29,61.65,978.88
89.23,80.2,958.98
69.95,15.87,1089.6
79.59,67.38,1018.68
74.58,-21.85,1140.62
93.87,-17.7,1136.47
154.3,49.32,1037.84
82.4,-13.06,1114.87
62.38,-121.22,1304.44
86.06,-91.43,1285.89
93.75,-19.29,1134.89
26.73,-67.38,1223.14
101.2,-46.02,1211.43
99.12,-17.09,1126.59
75.32,-21.12,1120.12
93.14,6.23,1099.24
85.69,13.31,1108.76
84.84,-41.63,1177.86
81.67,-11.23,1146.12
89.6,16.24,1068.6
84.72,2.44,1094.12
83.62,23.8,1072.27
75.56,-34.3,1128.05
117.68,-30.15,1112.06
50.17,-23.93,1152.34
90.09,-2.81,1141.48
74.34,14.04,1099.73
116.09,43.46,1034.55
63.35,25.88,1061.77
67.38,54.44,1014.16
89.36,-12.21,1128.91
93.87,-36.99,1175.17
85.57,4.27,1105.35
3.42,34.91,1106.93
11.23,-14.16,1163.33
24.29,-14.77,1129.03
187.13,147.46,903.32
38.82,81.3,922.97
36.13,-18.68,1108.03
106.2,-4.27,1130.13
86.67,-49.32,1212.77
81.67,26.61,1057.5
80.08,80.93,976.93
39.67,26.49,1054.2
88.5,52,1030.52
89.72,15.75,1086.3
90.94,-20.02,1148.68
89.23,-8.67,1126.59
72.75,-58.11,1203.86
85.69,-2.56,1117.68
83.86,28.2,1076.66
78.98,-9.03,1126.95
156.74,-42.97,1151.49
73,-5.74,1109.86
116.09,-24.41,1164.92
74.34,41.63,1029.3
84.59,49.8,1023.07
113.16,71.66,989.62
88.99,-40.77,1135.25
73.49,-75.2,1253.17
68.24,-33.33,1170.78
123.29,-41.63,1169.68
150.02,-23.8,1087.04
86.43,20.51,1038.09
64.94,-39.31,1092.04
173.22,202.76,812.62
107.06,51.27,1051.76
33.2,-8.54,1094.73
117.55,1.59,1130.13
91.92,3.05,1106.45
91.43,26.61,1025.02
123.05,28.44,1075.93
69.58,-27.71,1157.71
67.02,-6.23,1136.35
72.63,7.08,1100.83
75.93,39.67,1057.01
99.49,42.36,1036.13
80.08,16.24,1090.45
63.84,-7.93,1107.54
63.23,42.97,1087.4
6.84,26.86,1092.53
142.46,12.82,1059.81
107.42,74.1,1017.33
72.27,69.46,960.82
98.51,-40.65,1173.83
86.79,21.61,1070.07
77.39,-61.89,1226.07
75.56,-75.07,1228.52
77.88,-55.3,1199.71
93.38,-31.86,1175.78
144.17,-36.87,1129.15
63.48,-16.6,1136.84
58.47,-64.21,1232.67
102.42,-185.55,1433.72
42.24,-182.86,1386.96
93.14,-41.38,1228.76
65.67,-60.67,1238.4
96.8,-62.62,1207.28
67.26,66.04,1026.61
102.42,104.74,931.4
96.44,42.48,1031.49
84.59,39.92,1042.24
79.96,15.5,1077.76
84.59,-19.41,1155.64
89.72,-9.89,1127.44
70.68,-36.62,1164.31
83.5,12.08,1087.28
118.04,46.63,1052.25
125.37,-21.73,1118.9
-78.12,98.63,1058.23
185.55,7.45,1061.16
10.5,-69.7,1212.16
37.48,-21.36,1140.75
112.92,-114.75,1321.78
83.98,-52.25,1201.29
68.12,55.91,1011.84
101.44,72.14,1002.32
72.02,22.09,1087.04
64.82,-25.15,1161.87
10.74,-38.09,1165.53
120.61,-65.8,1261.72
113.16,-161.74,1365.6
43.82,-131.84,1306.27
110.11,-35.89,1195.56
59.2,-16.48,1133.67
77.88,14.89,1075.44
81.3,30.88,1063.84
137.33,79.35,972.17
120.73,25.27,1075.32
68.97,35.28,1043.58
94.12,23.19,1084.23
100.1,-12.21,1145.87
89.72,-1.95,1116.94
78.61,13.79,1079.47
76.17,8.06,1096.56
108.03,29.54,1069.7
115.48,-2.44,1069.7
83.01,9.03,1091.19
107.06,93.63,991.82
90.82,47.73,1062.87
142.7,192.87,749.39
143.8,169.19,808.96
88.38,161.87,806.27
72.14,-33.81,1153.81
96.19,75.93,977.78
92.16,-56.15,1211.43
27.34,-28.81,1227.54
44.31,-28.2,1212.52
92.16,-57.62,1166.5
166.99,216.06,812.13
17.58,158.08,812.38
36.99,7.81,1055.18
109.13,3.17,1130.37
68.6,-38.82,1171.39
94.24,3.05,1100.83
92.04,24.29,1079.96
93.38,47.73,1024.66
92.77,16.11,1090.09
102.91,27.1,1056.27
89.11,33.33,1071.9
87.77,-9.64,1130.98
82.89,-2.32,1107.18
84.23,-2.08,1133.18
80.93,27.71,1058.59
64.09,-12.57,1125.12
98.14,51.27,1074.71
172.12,-49.19,1090.7
84.72,43.82,1104.37
25.88,75.32,1029.91
136.96,3.78,1040.65
127.08,-53.83,1174.56
86.79,-55.91,1194.58
85.94,-44.31,1174.8
109.99,-38.7,1191.28
6.84,12.94,1131.84
-4.39,85.45,996.22
138.18,115.6,970.46
14.65,82.03,920.9
104.49,168.33,897.09
151.98,54.93,1025.39
92.77,7.81,1112.43
68.97,60.79,997.8
73.12,-9.28,1093.14
139.77,90.33,946.66
113.65,90.45,922.85
105.83,59.94,1004.27
64.7,-7.08,1125.37
71.04,16.11,1082.4
89.97,3.78,1115.11
82.64,-15.26,1132.57
85.45,4.15,1109.38
86.67,-12.7,1121.83
100.34,38.09,1038.21
101.81,-51.76,1211.91
-34.91,-23.19,1206.18
55.3,-1.46,1098.63
57.86,-22.71,1114.5
44.92,-21.61,1184.69
66.16,-20.75,1142.7
103.27,20.39,1065.06
70.31,-6.71,1101.2
104.61,32.47,1064.45
78.74,42.24,1063.96
60.91,-104.13,1237.55
39.18,-41.5,1123.66
155.64,-10.74,1211.18
54.32,-134.89,1339.11
58.11,-122.07,1325.44
113.53,3.42,1118.65
59.08,24.17,1067.87
77.27,-9.77,1143.8
46.51,49.8,1018.68
52.98,10.13,1089.97
97.41,39.92,1050.05
84.84,-14.28,1128.42
71.9,5.37,1106.69
85.82,1.59,1121.22
72.27,-49.07,1181.03
82.28,-14.89,1127.81
72.02,-6.23,1121.95
94.97,39.67,1069.34
77.27,22.95,1050.29
110.6,-18.19,1125.61
93.02,45.17,1028.2
112.3,162.72,829.22
120.48,151.37,844.48
104.49,147.58,831.3
85.21,-10.99,1134.03
42.97,-100.95,1322.75
74.1,-100.59,1269.65
90.82,-32.71,1150.39
78,53.71,1093.51
152.95,139.65,872.19
91.55,33.45,1038.57
180.79,185.79,831.42
12.33,140.87,877.93
103.39,-4.52,1127.08
114.01,-2.69,1121.22
63.72,41.87,1065.06
64.33,-18.07,1110.6
100.46,-51.15,1199.71
40.16,-54.32,1212.04
55.42,-20.26,1161.87
92.9,-26.98,1175.17
79.22,-34.91,1145.87
78,-43.7,1180.79
83.37,8.91,1114.62
90.7,1.34,1126.71
85.94,-44.31,1179.93
80.32,-18.19,1131.84
-131.35,53.59,1184.45
359.01,-105.1,1193.12
-0.12,79.83,958.98
27.22,21.61,1054.2
216.19,80.93,949.22
151.86,31.25,1008.06
63.72,112.79,928.71
78.86,-2.69,1089.97
101.56,63.96,987.43
125.24,-30.64,1151
49.44,-119.14,1270.63
102.91,-34.67,1153.2
65.19,-91.31,1228.15
21.61,-141.85,1308.59
84.59,-39.67,1198
76.29,-115.48,1314.7
68.48,-62.01,1213.87
95.58,65.31,970.95
126.83,75.68,993.41
78.25,99,903.56
83.74,89.6,951.29
108.89,42.24,1036.38
99,20.39,1077.27
76.29,-7.32,1146.48
81.05,-46.51,1199.83
87.04,-25.15,1170.78
74.71,-2.2,1099.49
128.42,-12.21,1087.28
209.35,-29.54,1089.23
-122.44,29.42,1133.91
167.11,-116.33,1267.33
-56.64,-161.74,1439.33
55.18,-7.93,1213.5
48.95,-106.81,1368.77
97.41,0.37,1032.23
100.95,116.82,912.72
76.42,63.48,978.88
134.28,57.74,985.35
78.37,26.61,1029.54
137.82,42.72,1022.58
111.82,-121.09,1224
14.65,-122.56,1318.12
112.18,-23.56,1158.33
84.47,-64.58,1236.57
63.23,-76.78,1265.87
65.31,40.77,1038.7
98.14,2.81,1098.75
97.53,-72.14,1243.9
83.86,44.43,1036.5
109.5,63.11,1015.87
89.72,15.38,1102.54
77.88,-19.04,1140.5
82.89,-24.41,1147.58
75.68,-10.62,1114.87
62.62,19.65,1078.49
100.34,27.59,1079.22
238.77,1.95,994.51
143.31,90.09,943.24
98.63,129.03,856.81
187.87,25.15,950.32
109.38,202.76,800.42
-3.3,59.69,1019.17
37.72,158.94,859.5
102.17,-18.8,1146.61
82.03,-81.54,1255.37
103.03,-45.9,1182.5
101.07,-31.13,1132.69
127.44,25.02,1049.68
10.01,127.08,808.11
217.53,149.66,922
39.67,69.95,1025.51
53.47,59.81,1022.46
87.77,34.06,1033.45
85.45,13.43,1050.17
74.46,0.98,1109.62
98.14,72.51,996.22
72.75,-10.62,1140.99
67.02,28.2,1060.06
75.56,15.5,1100.83
82.03,36.5,1053.22
102.66,55.42,1023.56
85.45,19.29,1080.32
75.93,5.49,1099.49
94.73,-2.93,1139.28
-59.45,68.73,1062.38
370,-56.15,1113.4
-153.2,-18.31,1192.75
134.64,-235.84,1529.66
-67.63,-114.01,1356.32
154.54,123.9,799.07
158.45,150.39,777.95
90.94,93.14,975.46
71.29,-64.7,1203.98
125.85,96.31,980.47
101.68,-48.58,1184.57
71.17,-95.95,1283.69
101.44,-12.57,1147.34
67.26,37.23,1032.84
39.43,-121.7,1278.69
95.21,-16.72,1184.57
75.56,-33.08,1160.52
88.13,-11.84,1112.43
109.01,4.88,1092.29
99.37,109.5,940.19
86.06,58.23,1012.08
73.73,59.94,991.46
76.42,18.8,1061.04
78.25,25.39,1072.51
88.5,10.74,1088.13
78.37,-9.77,1124.51
87.65,-1.59,1116.58
91.67,6.59,1084.47
62.01,54.08,1041.87
213.26,-80.08,1167.6
-68.24,174.68,921.75
133.3,202.88,734.86
16.85,148.44,915.65
47,226.93,750.12
95.09,-25.63,1127.32
88.62,-173.58,1414.31
43.46,-140.62,1367.31
90.58,-37.48,1157.35
87.52,-2.81,1169.43
39.06,160.4,865.11
87.4,77.51,975.1
168.46,241.21,754.03
30.27,146.97,855.22
57.25,9.03,1069.21
91.43,-14.16,1149.41
70.56,-47.97,1191.65
88.87,6.84,1111.94
90.33,41.63,1067.14
73.73,50.78,1002.08
110.35,51.88,1006.1
113.65,41.99,1029.3
100.83,43.33,1052.37
83.37,26.61,1056.27
76.29,7.81,1082.4
90.09,-8.54,1136.6
75.44,-16.97,1124.15
102.42,-5.98,1110.96
105.59,43.21,1040.53
65.19,1.1,1095.21
77.15,103.39,913.09
126.95,-130.62,1307.74
52.12,-166.38,1408.2
79.83,-26.86,1172
114.26,79.59,948.49
124.39,13.92,1091.55
75.2,102.17,948.24
70.31,-24.17,1139.04
4.88,39.67,1016.97
145.14,54.32,1038.21
117.8,-72.75,1129.27
66.53,-105.47,1301.64
35.89,-41.87,1172.85
143.31,-16.11,1161.01
28.2,-71.78,1196.17
93.87,26.49,1117.68
48.46,-37.48,1177.98
95.7,-6.35,1114.5
71.66,49.07,1002.08
68.6,5.98,1075.2
122.68,24.41,1070.68
103.76,-21,1149.54
76.78,-9.4,1111.08
86.06,3.05,1108.64
71.29,30.27,1054.32
73.49,-13.31,1145.87
74.34,4.39,1131.71
125.85,-111.94,1316.41
43.33,28.81,1111.21
145.39,157.47,785.52
104,93.63,908.45
97.17,159.67,840.45
89.36,4.39,1106.45
93.02,28.32,1026.25
108.64,94.48,913.21
90.33,81.3,1017.7
79.83,-24.17,1167.24
35.16,-147.71,1298.83
144.9,-1.46,1178.71
19.53,46.02,995.97
21.36,-123.29,1286.87
105.71,26.25,1082.76
84.23,2.32,1097.66
58.72,-22.58,1126.83
79.59,4.64,1143.92
114.14,25.51,1057.5
113.04,-34.67,1160.64
91.31,26.25,1054.57
72.75,49.07,1019.29
104.37,61.4,1006.23
100.95,26.25,1066.04
80.69,12.33,1091.92
78.74,-21,1149.66
79.47,6.23,1121.58
54.57,7.69,1133.3
159.42,-38.82,1132.69
83.62,75.93,987.67
-4.15,118.04,947.02
171.63,0.85,1047.97
91.43,-62.99,1194.34
93.99,-9.4,1123.66
46.75,4.27,1173.34
64.33,-4.52,1144.53
111.45,7.2,1094.73
118.77,-53.96,1196.29
43.95,-104,1231.57
82.28,30.4,1097.53
115.23,111.69,917.11
104,53.1,1009.52
37.11,-21.85,1072.51
54.57,-17.46,1113.16
109.38,-1.1,1133.18
91.67,27.83,1053.47
111.45,50.54,1023.93
75.56,50.54,1011.72
96.92,45.41,1043.09
109.74,23.19,1078.12
89.11,30.64,1073
95.34,42.36,1041.14
88.01,15.87,1085.33
81.67,17.58,1090.33
77.03,8.42,1082.89
139.4,-75.68,1146.12
-124.76,118.9,1113.77
178.71,-94.85,1150.76
110.47,-69.95,1173.71
278.44,-84.23,1107.67
-95.58,169.19,966.8
110.6,10.38,1065.06
134.77,24.17,1084.72
122.68,24.66,1051.39
44.19,51.88,1079.83
96.31,-28.81,1126.1
51.64,-66.53,1197.14
84.11,21.97,1112.79
51.51,-69.09,1226.56
7.81,-196.9,1429.57
116.33,5.98,1113.16
73,15.26,1098.27
72.14,-26.49,1129.64
74.71,37.23,1099.98
113.28,-10.86,1115.48
59.08,5.86,1086.67
66.04,-26.12,1148.07
93.26,23.8,1082.64
84.35,-22.22,1159.42
83.5,-26.12,1148.19
86.3,0.12,1112.43
80.81,-5.37,1123.9
77.15,33.57,1053.83
32.23,6.59,1108.52
-206.42,138.79,1068.12
563.6,-221.68,1197.02
-117.68,27.83,1191.16
362.55,-237.92,1331.3
46.02,5.98,1112.55
-23.07,119.51,967.29
-14.16,14.4,1080.44
170.78,49.19,1054.57
38.7,12.57,1054.2
3.3,29.17,1089.6
20.63,144.78,967.41
5.62,-17.94,1137.21
118.29,80.08,1014.65
91.06,115.84,911.62
95.58,-156.86,1351.81
102.78,-14.53,1133.54
83.37,80.57,958.01
88.26,72.63,973.63
125.98,106.32,895.51
96.92,51.27,1028.32
96.44,66.53,987.92
66.65,-13.79,1136.84
64.58,-57.74,1210.21
74.83,-1.83,1129.76
92.65,27.34,1077.39
83.74,-1.59,1122.31
80.32,0.98,1094.12
71.53,24.41,1092.53
327.76,-221.31,1248.66
-373.17,120.48,1301.76
250.61,-261.6,1338.13
-27.71,275.51,899.54
282.59,143.8,608.89
104.13,149.66,919.31
-30.52,-135.5,1364.14
106.45,-221.19,1488.53
34.06,-76.78,1247.19
78,25.02,1075.2
141.72,-53.59,1162.84
116.58,-64.58,1206.91
-41.87,136.23,912.84
131.71,157.35,882.81
106.93,-13.06,1101.2
65.43,12.7,1121.09
59.08,4.27,1112.67
76.17,5,1063.6
97.9,47.61,1036.99
96.92,83.62,965.94
83.62,52.98,1018.68
75.2,53.59,1031.37
63.84,48.34,1036.87
87.28,32.47,1048.22
82.28,-16.11,1136.72
78.86,-6.71,1122.07
82.28,-12.33,1120
132.2,-22.09,1140.26
-208.74,105.1,1101.81
183.47,-40.65,1065.19
8.67,78.12,1084.72
303.47,-84.35,988.53
-84.47,97.29,1133.54
-82.89,-18.92,1213.87
157.23,-55.66,1198.12
91.67,-18.68,1095.21
64.33,-11.11,1100.22
121.58,11.84,1090.21
123.17,-136.6,1317.02
-47.97,-188.72,1446.17
53.71,24.9,1132.69
82.89,97.29,866.46
35.03,-74.34,1187.5
161.5,74.34,1027.71
53.59,-17.21,1120.97
82.4,-3.17,1109.38
66.89,9.16,1101.07
38.7,-51.51,1182.25
124.02,17.82,1111.45
65.92,43.33,1019.41
67.38,22.09,1079.83
86.43,29.91,1049.44
97.29,21.73,1075.32
88.26,-0.24,1114.87
81.79,-10.01,1117.8
72.75,-20.75,1200.44
61.65,14.16,1106.2
-422.49,195.19,1064.45
129.27,-47.97,1250.37
-51.39,6.1,1183.96
84.84,45.78,1055.79
39.55,-24.66,1129.39
245.12,-11.96,1064.82
78,44.07,1000.37
69.7,43.33,1036.25
91.43,21.24,1087.04
147.46,-111.94,1171.88
19.65,59.81,1042.97
31.37,33.69,1049.93
-34.55,27.59,1054.57
162.6,53.34,1051.27
114.5,32.96,1025.88
40.53,48.34,1029.79
78.12,11.23,1104.13
71.9,-35.4,1135.25
93.38,-100.46,1311.89
39.92,-78,1231.08
98.88,1.46,1128.42
97.41,-43.09,1194.21
75.56,-5.86,1103.76
92.65,-14.65,1126.59
81.18,0.98,1101.07
74.46,3.54,1100.22
80.32,-21.24,1116.09
27.71,84.35,1049.19
349.61,-181.52,1209.47
-209.96,216.8,819.09
184.33,126.83,930.42
48.1,266.24,681.4
-41.63,71.17,1060.67
160.28,-260.01,1500.73
117.19,-190.92,1429.08
40.41,13.43,1104.13
115.36,86.91,928.22
27.83,-9.16,1135.99
95.46,134.28,917.97
68.36,-2.56,1085.94
174.32,170.04,867.43
69.09,94.6,909.79
62.13,-62.5,1173.46
90.21,-13.31,1135.38
111.94,77.39,992.68
126.22,27.83,1060.79
61.89,84.47,954.59
72.14,76.54,943.97
97.05,75.68,992.8
109.74,58.23,1007.45
94.24,28.69,1068.12
84.47,-3.66,1112.3
72.88,-6.1,1121.09
82.52,-4.52,1113.65
82.76,-3.05,1112.06
88.5,-33.81,1127.81
180.54,-35.03,1129.15
666.38,-152.47,1128.91
232.3,-38.94,1186.04
-81.54,51.64,1070.8
-59.2,65.06,1083.13
-18.8,15.14,1138.79
167.48,-43.58,1146.73
79.83,11.23,1084.47
60.3,-8.54,1138.31
111.08,-25.27,1154.3
61.65,-19.04,1078.98
8.42,139.53,1011.6
-18.19,71.41,956.42
103.52,-37.72,1186.28
45.04,0.24,1131.47
11.96,-6.96,1112.18
128.17,0.61,1129.76
95.34,8.79,1106.32
85.82,-60.06,1172.73
90.09,-68.85,1240.48
71.29,-29.91,1167.24
67.87,-26.25,1164.67
67.63,-41.63,1166.38
86.43,-60.42,1213.87
81.05,-16.97,1157.84
85.08,-21.85,1144.04
93.75,29.91,1073.85
103.88,-7.81,1088.75
229.61,-71.9,1117.55
-291.02,194.46,1065.19
305.79,34.55,920.17
-173.58,144.04,1003.91
196.9,-188.6,1366.46
127.69,-158.81,1376.46
7.32,32.23,1098.14
130.13,88.99,940.92
129.27,-39.31,1159.06
30.52,20.75,1091.31
-12.7,170.04,931.52
160.16,92.29,955.08
121.58,66.77,993.65
99.37,86.67,942.99
94.85,-154.54,1369.14
91.55,-24.9,1138.06
97.29,93.02,953.74
83.5,-1.1,1083.74
102.29,127.32,867.19
108.03,82.15,983.15
86.3,80.57,954.1
76.17,-12.7,1141.72
72.27,33.08,1026.49
89.84,-32.47,1178.1
88.13,-8.79,1150.02
76.54,-33.2,1163.82
89.36,-0.98,1114.75
85.82,61.52,980.83
-5.74,-25.02,1202.76
638.79,-395.02,1316.41
-131.23,2.56,1352.29
270.87,-171.02,1245.12
208.37,89.72,898.68
119.26,20.02,1007.2
-62.74,205.57,876.22
141.6,22.58,1011.6
119.75,-29.79,1171.88
19.41,-19.29,1191.16
60.18,-103.88,1344.48
-58.96,-144.53,1375.12
81.54,92.16,929.57
42.72,-47.73,1157.47
122.19,-141.24,1318.12
111.45,-32.71,1171.88
55.66,58.72,1025.76
71.17,-24.41,1140.5
107.67,97.29,910.89
108.15,81.54,979.86
84.47,76.29,969.97
69.21,15.38,1098.39
70.07,45.78,1032.59
74.95,-5.25,1130.98
78.61,-20.26,1145.26
91.31,-24.78,1155.76
79.59,-4.76,1116.33
78,80.93,977.29
-144.41,27.47,1167.97
1118.41,-599.37,1297.85
-349.73,209.96,1166.02
377.44,-306.03,1272.46
-262.33,190.31,922.24
289.31,-55.91,1114.14
171.75,-86.67,1167.97
-2.56,23.07,1139.04
53.96,24.66,1131.23
133.18,-19.78,1098.02
91.31,142.94,945.19
44.19,-97.05,1290.04
-11.96,64.58,1067.87
104.86,51.64,966.92
84.35,-151.73,1345.58
95.21,-14.89,1166.26
73.12,17.94,1068.24
84.84,0,1047.36
93.87,51.15,1000.61
103.03,109.62,935.79
83.5,67.63,982.06
78.25,54.93,1020.75
69.21,44.8,1032.1
90.7,16.6,1093.63
88.5,-29.05,1158.45
73.36,-18.92,1146
89.6,-5.62,1126.46
88.01,0.98,1124.02
62.99,-45.78,1163.57
87.77,2.32,1109.01
73.49,-13.18,1116.33
90.7,20.51,1067.14
103.15,24.9,1080.44
89.97,34.91,1051.51
69.09,24.54,1088.13
66.04,17.21,1047.49
80.81,-8.06,1126.46
77.51,-3.42,1127.69
70.43,74.34,1033.08
60.91,-104.25,1270.51
75.81,-81.79,1254.15
63.72,-76.54,1244.02
127.44,-41.63,1192.99
34.42,-11.23,1054.32
103.76,39.43,1064.45
96.8,35.03,1054.44
84.72,29.54,1071.17
103.64,25.15,1038.7
88.62,3.66,1102.29
97.9,38.33,1040.41
78.37,-24.17,1137.82
98.27,25.63,1073.12
83.98,34.91,1052.98
86.55,1.59,1091.55
77.51,-4.64,1118.65
68.36,6.23,1088.13
96.56,-82.03,1230.59
12.57,-112.06,1321.17
57.37,-61.04,1223.02
42.11,-105.59,1321.53
81.67,-99.12,1273.68
80.2,27.83,1062.01
109.38,99.98,939.7
108.64,46.39,1013.55
92.29,78.86,954.22
90.33,37.48,1043.21
88.13,-23.56,1139.04
51.27,-16.72,1055.66
63.11,31.86,1030.88
61.89,66.53,929.93
134.77,185.55,818.24
166.02,113.4,915.04
43.09,81.54,983.28
70.92,106.81,955.44
76.42,39.43,1029.79
78.25,119.02,931.76
98.27,11.6,1082.03
83.74,25.27,1046.88
72.88,-29.42,1181.76
70.19,-81.3,1247.56
77.03,-34.06,1164.43
92.65,-12.82,1145.26
93.02,24.54,1079.83
93.87,35.77,1062.01
91.43,24.17,1050.29
134.4,53.1,1015.38
88.26,34.91,1042.97
103.76,22.46,1073.73
87.52,55.91,1019.65
92.16,44.43,1041.02
79.96,44.8,1019.65
103.03,9.64,1114.5
90.21,0.12,1116.33
84.11,-5.25,1134.89
62.5,-40.04,1176.88
43.58,-109.74,1232.18
85.94,0.24,1059.94
70.07,-42.11,1090.7
58.72,-151.49,1348.75
128.3,-128.78,1313.96
60.67,-80.69,1254.76
61.65,-14.4,1143.07
92.41,1.71,1087.28
132.2,6.35,1103.64
104.61,68.97,993.9
104.98,-3.3,1095.21
85.69,29.54,1064.33
67.02,7.32,1090.33
92.41,-17.94,1150.63
68.97,-24.29,1153.93
69.95,-25.27,1152.59
83.37,1.34,1110.72
85.08,-0.12,1114.01
147.58,-27.1,1058.11
60.18,-19.65,1174.56
51.51,-40.89,1186.28
72.27,-42.11,1181.64
65.8,-14.77,1150.27
56.15,-7.69,1138.67
84.72,-16.11,1126.22
92.16,-22.71,1142.21
91.67,-5.49,1139.53
59.69,16.85,1086.91
44.19,43.21,1043.21
35.64,-49.56,1189.82
123.41,-67.38,1174.68
129.15,185.06,827.15
38.82,170.53,847.17
22.95,12.33,1022.09
124.63,35.4,1074.71
109.86,20.39,1079.1
58.72,-1.34,1100.1
92.41,-3.66,1136.11
80.2,46.02,1033.45
90.82,6.23,1083.5
105.71,4.76,1101.56
100.22,18.8,1085.69
86.67,40.41,1039.67
87.52,19.65,1079.1
76.54,3.78,1095.21
74.95,10.01,1083.01
89.72,-98.27,1250.24
109.38,-44.68,1185.79
70.07,-100.34,1283.94
53.34,-80.81,1251.1
95.21,-32.1,1160.52
76.05,71.17,992.43
79.47,11.35,1085.21
72.51,65.19,1008.54
77.03,4.39,1085.33
95.58,23.93,1059.45
53.83,9.64,1099.12
93.99,93.75,1010.25
64.21,-36.13,1184.08
85.82,111.57,933.11
113.28,182.25,833.13
76.17,-123.78,1272.22
128.17,19.41,1087.4
67.38,47.12,1024.17
88.13,19.9,1075.93
102.66,84.72,978.76
88.99,50.05,1022.34
88.5,44.8,1028.08
73.61,16.36,1097.53
62.01,15.62,1089.36
62.26,3.54,1131.23
70.56,-21.97,1154.91
92.53,-11.96,1126.34
83.98,-4.88,1104.49
69.95,10.01,1110.11
51.88,-94.48,1255.37
73.97,-52.98,1251.83
81.42,-28.56,1154.17
57.74,-103.03,1271.61
78.37,-11.6,1162.72
83.37,83.25,978.88
79.83,28.32,1068.85
106.57,66.16,956.3
99.61,60.67,1020.75
97.17,46.26,1038.57
86.3,-38.82,1202.64
80.81,-14.77,1121.34
83.86,-18.8,1119.02
79.35,126.1,911.99
76.17,142.94,870.73
69.09,72.27,967.77
86.43,60.06,1020.75
98.39,80.81,982.67
95.46,38.94,1015.01
70.31,67.38,995.85
73.73,68.73,964.36
89.11,45.17,1042.72
111.69,42.6,1047.97
84.84,-6.47,1119.26
69.09,8.18,1088.13
73.97,-12.45,1139.77
83.01,-4.27,1111.33
77.03,0.49,1101.07
129.76,-87.04,1209.72
42.24,-64.7,1254.39
62.87,-91.8,1257.45
53.96,-63.72,1232.54
93.99,-46.39,1200.44
50.17,46.63,1050.05
46.14,-8.79,1133.3
118.77,34.79,1037.6
125,46.63,1018.07
104.37,28.2,1064.82
51.03,25.27,1064.21
111.08,-37.6,1088.5
147.83,27.71,1078.12
59.81,-174.44,1368.65
130.13,16.72,1070.07
45.04,27.71,1091.19
99.85,-42.85,1191.04
63.84,-89.48,1261.96
58.47,-13.79,1156.49
50.42,-52.98,1202.03
67.26,-12.33,1105.96
95.09,61.28,1001.83
85.33,14.77,1082.76
105.59,19.78,1071.29
84.47,-1.34,1100.22
86.55,-18.8,1148.68
84.35,-14.77,1141.36
73.12,-0.73,1107.3
48.58,29.05,1104.98
164.67,-48.95,1150.88
78.86,-77.51,1238.4
49.93,-83.01,1219.6
78.12,-50.66,1184.57
84.47,-81.79,1270.63
62.38,-22.95,1171.39
95.58,49.8,988.04
87.28,21.85,1049.8
115.23,61.4,1009.4
100.1,44.07,1022.22
69.7,120.73,932.13
128.54,61.4,1020.14
59.69,108.4,860.11
152.47,140.5,911.38
84.11,52.49,1032.96
65.55,17.46,1078.37
94.48,54.69,1018.8
74.95,-6.1,1103.76
69.95,47.24,1020.02
116.94,-13.31,1129.15
87.89,-70.07,1233.4
85.45,-4.27,1128.91
72.39,-34.79,1159.79
86.67,-22.34,1146.12
103.39,32.35,1073.61
86.18,7.32,1111.82
86.43,-1.1,1126.59
107.18,-36.99,1135.5
66.41,15.5,1107.91
59.94,65.31,1000
46.14,31.37,1083.01
157.84,74.95,961.18
132.93,48.34,1011.47
86.55,148.68,847.66
72.88,28.81,1064.94
77.03,66.65,1007.69
102.05,-5.86,1128.66
89.84,-46.26,1156.25
119.26,-82.28,1200.2
17.09,-10.86,1090.7
109.25,-24.41,1237.67
92.65,-158.81,1389.77
54.44,-140.01,1338.01
102.29,-6.47,1130.13
86.43,27.59,1072.75
87.89,-6.1,1145.63
64.7,54.57,986.33
65.43,10.25,1089.23
104,59.57,1005.25
106.57,25.88,1064.21
57.86,43.82,1043.46
72.63,21.73,1095.83
73.36,-19.04,1145.63
90.33,-12.82,1139.28
71.66,-3.54,1127.44
98.14,-18.19,1130.86
49.07,-73.36,1226.56
28.69,-91.19,1299.56
93.51,-118.9,1315.43
86.91,7.93,1089.6
65.55,-77.39,1266.6
97.41,63.11,997.44
90.33,-39.31,1176.03
118.9,75.32,974.12
86.91,-36.5,1140.62
92.77,14.28,1065.55
98.63,3.42,1095.95
138.79,74.46,965.58
23.32,-4.76,1102.78
182.62,260.25,775.51
19.53,159.42,804.93
105.59,25.02,1057.5
102.54,38.21,1045.04
89.36,61.52,1018.68
97.66,-56.64,1175.54
117.31,8.79,1077.76
87.52,-27.95,1151.12
59.45,-63.23,1232.91
84.72,-34.3,1163.57
78.49,-21.61,1134.89
87.52,-4.52,1117.07
77.39,-10.99,1121.22
79.22,6.23,1093.51
78.12,1.95,1110.47
155.52,-25.51,1144.9
95.83,27.22,1057.13
85.33,79.71,1018.55
89.23,35.03,1040.04
86.79,102.05,938.48
94.85,73.61,988.65
93.51,106.32,906.49
89.6,90.7,949.71
99.73,79.35,993.29
86.91,31.01,1056.15
104.98,-10.25,1112.43
157.23,43.58,996.7
107.54,38.82,1044.07
70.56,-154.17,1355.59
14.65,-207.76,1432.5
107.06,-27.95,1187.38
71.66,-28.93,1152.83
88.38,-50.66,1215.45
69.21,-18.31,1134.03
116.58,18.43,1093.26
43.95,24.05,1049.44
64.58,-8.3,1120.73
87.52,12.45,1103.52
94.24,6.71,1103.76
60.91,-53.1,1189.58
91.8,-12.21,1144.9
88.5,-19.41,1152.22
79.96,33.45,1054.81
40.16,10.86,1095.46
78,130.37,905.4
95.95,47.73,1027.1
150.51,140.87,864.99
73,89.23,952.64
71.9,-62.5,1222.41
86.43,35.52,1031.74
93.51,-147.22,1339.36
39.92,-143.68,1370.24
73.24,-30.03,1147.83
109.62,40.28,1003.91
76.66,52.73,1033.45
111.82,-18.19,1080.32
50.17,68.97,921.39
104.37,180.42,842.65
108.76,0,1088.87
69.34,5,1122.19
76.29,21.85,1091.67
69.34,-25.63,1134.16
83.98,21.97,1073.61
97.78,85.69,1012.21
89.11,29.66,1082.64
77.76,40.41,1040.04
73.36,14.04,1098.02
79.83,33.57,1051.64
89.6,37.35,1053.22
77.64,3.3,1099
88.38,-4.03,1106.45
91.43,-0.37,1112.79
-10.13,65.06,1052.73
15.26,108.15,976.93
70.31,57.01,1015.26
102.54,12.33,1090.21
98.02,98.02,933.47
79.83,-39.55,1168.58
94.73,71.41,989.62
78.86,-86.43,1252.2
81.54,-133.91,1334.23
68.48,-30.15,1160.89
11.84,-24.66,1179.32
96.92,11.23,1097.41
100.22,18.68,1026.12
205.44,238.89,770.26
3.42,122.31,850.34
87.4,-44.31,1157.35
117.55,5.37,1112.79
78.37,-16.72,1145.02
53.47,-13.06,1129.76
77.27,35.64,1043.7
88.26,67.5,1004.88
83.86,33.33,1047.61
86.67,23.44,1050.42
96.68,34.55,1064.58
93.63,50.78,1024.41
78.49,15.26,1083.5
77.64,5.37,1086.91
85.57,-16.36,1134.03
83.25,-21.97,1104
57.37,-28.69,1185.18
59.45,-117.31,1270.02
71.53,-116.46,1324.34
66.28,-78.25,1219.48
94.73,85.21,974.37
90.7,9.16,1123.29
78.61,-82.52,1273.56
95.7,53.71,1007.93
86.06,61.52,978.39
57.01,99,964.11
20.14,10.99,1128.17
112.79,-15.26,1100.34
39.67,81.79,932.01
100.34,220.95,757.93
104.61,31.86,1043.09
66.16,-2.32,1111.82
69.34,14.16,1051.27
101.93,-7.81,1126.1
43.7,-13.55,1120.73
85.69,61.4,1022.58
77.64,5.13,1110.23
71.9,28.32,1057.74
75.2,17.21,1094.12
70.07,41.14,1059.57
99.61,35.52,1053.96
86.18,5.98,1102.29
69.46,-4.76,1105.71
80.69,-26.37,1171.39
66.16,-27.59,1166.02
45.78,-66.65,1222.9
57.37,-116.46,1317.14
51.88,-94.24,1278.32
107.3,38.09,1041.99
84.35,-30.88,1177.98
101.68,107.42,926.88
103.52,141.24,884.89
87.77,28.08,1058.35
84.35,14.65,1055.42
140.62,-38.09,1127.81
52.49,91.55,1039.79
80.81,-79.96,1278.69
52,-229.61,1427.25
114.62,-100.95,1298.1
45.53,-41.14,1170.04
101.56,-8.91,1158.2
73.97,-23.8,1106.32
109.13,0.49,1108.03
88.99,11.72,1086.79
95.83,22.95,1081.67
95.34,3.78,1121.46
95.21,-33.33,1167.48
69.46,-30.15,1146.36
94.12,-22.22,1142.33
76.78,-6.71,1108.4
71.17,4.64,1091.67
72.27,6.35,1106.2
62.99,87.4,983.64
71.17,78,994.26
54.32,100.95,979.37
104.25,42.6,1035.16
80.57,102.29,939.45
79.1,79.35,982.42
76.9,130.98,902.59
83.74,22.34,1048.22
96.07,74.58,979.74
79.35,45.78,1006.23
128.42,-11.47,1091.8
40.77,38.33,1049.68
39.18,91.43,1074.46
52,-170.65,1423.58
40.77,-223.88,1439.09
84.84,15.62,1137.08
73.73,-2.69,1091.43
96.92,-28.93,1158.57
87.52,2.69,1090.09
58.11,-71.66,1184.08
88.38,-57.37,1206.54
66.28,-20.87,1144.17
92.16,18.31,1096.19
87.77,-35.4,1166.87
67.87,-24.17,1141.24
93.99,-1.22,1115.11
89.6,-7.45,1106.93
74.95,25.27,1068.36
99.85,27.59,1023.93
134.52,37.35,996.58
127.2,71.29,976.93
110.23,71.29,973.02
74.58,5.86,1093.87
85.21,91.43,948.49
92.16,111.82,907.71
80.2,101.32,964.6
103.15,130.86,890.01
93.26,51.03,1013.18
69.34,-76.54,1238.28
-4.27,7.81,1125
146.36,-99.37,1169.43
136.72,5.37,1163.09
134.64,-231.81,1544.92
125.12,8.3,1083.01
126.34,39.43,1089.84
52.73,33.33,1057.13
76.78,16.97,1096.07
82.76,46.51,1036.87
138.31,49.56,1005.86
121.34,11.23,1103.76
86.55,22.71,1070.43
71.53,18.07,1063.6
100.22,5.49,1098.63
84.23,13.18,1078.12
73.61,-12.94,1126.83
80.44,3.42,1102.42
88.62,20.51,1097.9
12.21,22.83,1087.52
60.06,-59.81,1224.98
53.1,8.18,1090.21
77.39,-81.91,1258.06
97.66,5.25,1113.53
51.39,-97.41,1288.57
84.59,-91.31,1267.82
79.59,-69.34,1237.43
59.2,-57.98,1208.98
90.82,11.84,1095.21
5.37,-26.49,1165.65
22.09,19.65,1096.8
149.9,-32.71,1068.12
65.55,79.22,983.28
15.5,125.85,847.53
12.82,5.25,1042.85
114.62,25.76,1106.93
88.26,3.91,1072.39
107.42,35.03,1052
51.88,51.51,999.15
31.86,25.39,1045.04
96.8,50.29,1027.1
87.16,12.94,1086.18
108.64,23.8,1090.58
77.15,-24.29,1160.89
85.08,-14.4,1127.93
85.21,2.08,1105.35
74.58,36.01,1058.23
78.86,-24.41,1129.39
-6.84,-9.77,1203.61
41.5,7.81,1132.57
24.66,-12.82,1155.52
51.51,47.12,1041.75
67.14,3.78,1109.13
85.33,41.87,1032.47
53.1,-45.78,1223.02
62.13,-109.99,1291.63
113.4,19.53,1079.96
74.71,-47.97,1183.23
18.19,54.08,1003.3
184.69,-20.02,1089.6
50.05,31.86,984.62
101.93,145.39,879.39
109.86,-13.31,1120.85
80.08,-0.73,1117.07
83.25,9.4,1103.03
74.1,-8.3,1097.53
74.46,37.84,1049.68
93.63,74.46,1000.73
90.33,25.39,1075.2
76.05,27.1,1061.65
77.03,17.7,1063.84
88.75,10.13,1095.58
74.22,22.58,1071.66
71.41,-9.64,1129.03
94.85,2.08,1104.61
102.42,6.23,1084.59
79.47,16.85,1075.07
81.54,42.11,1026.98
103.39,2.2,1097.05
50.9,56.76,1022.95
122.68,42.24,1019.41
88.01,-11.23,1117.19
80.69,37.23,1040.04
80.57,-66.04,1230.47
85.94,-101.56,1299.07
74.46,4.52,1106.69
-4.27,-20.26,1176.39
139.77,144.04,905.88
63.72,89.97,916.38
53.1,-94.73,1202.15
104.74,-86.18,1283.33
48.46,-83.74,1209.84
86.55,-100.71,1303.34
49.44,-72.27,1209.72
110.6,77.64,974.73
62.01,84.59,934.2
73,82.76,925.54
91.43,55.05,1030.76
106.57,51.39,1021.61
88.87,-1.1,1126.1
82.64,-26.25,1137.33
80.57,-32.84,1169.07
87.77,-11.35,1113.89
78.49,4.15,1114.14
90.82,-61.04,1168.7
89.23,-87.28,1243.04
45.41,-42.97,1199.34
62.13,-83.74,1242.68
66.41,-74.71,1248.78
57.37,8.18,1099.49
67.99,-26.86,1153.2
96.56,35.64,1034.55
92.9,72.75,1001.83
82.28,67.38,995.85
79.22,23.8,1035.77
92.53,70.68,939.94
64.82,56.76,973.63
101.93,126.71,860.96
122.8,133.3,910.89
94.6,-67.38,1220.95
83.62,1.95,1123.66
72.63,-41.63,1170.17
70.43,-2.69,1110.23
116.7,41.87,987.67
122.56,105.71,928.22
96.68,48.95,1022.71
79.1,0.61,1136.11
73.73,14.77,1087.16
83.01,-1.22,1116.09
85.45,-11.6,1127.44
91.19,-4.39,1134.77
82.89,-15.01,1143.31
65.55,-9.52,1115.6
91.06,-70.8,1226.68
125.37,-54.44,1191.65
50.42,-26.86,1166.5
46.14,-77.88,1237.55
103.52,-62.99,1240.36
57.86,51.76,1034.18
96.19,69.21,988.28
88.13,27.95,1028.69
74.71,-5.86,1130.13
76.42,18.8,1082.4
56.03,-111.69,1256.71
73.97,-37.11,1152.59
96.68,-73.97,1204.22
74.95,-170.53,1371.09
112.67,-56.15,1198.49
57.86,-7.08,1123.29
99.73,-5.37,1151.25
107.42,8.42,1146.12
75.93,0.61,1153.2
48.58,-77.03,1256.47
71.66,-49.44,1202.03
93.51,-5.37,1127.32
91.8,-25.88,1172.36
73.85,-21.73,1136.23
94.36,-21.36,1134.16
78.49,-4.52,1127.69
79.96,10.13,1091.31
86.55,-12.45,1126.46
112.18,12.94,1050.54
5.13,55.05,1067.87
76.42,-20.39,1121.22
84.84,16.6,1063.72
85.21,14.53,1081.67
80.32,27.1,1080.08
82.64,-22.09,1148.07
99.49,-29.66,1178.83
88.38,32.1,1048.95
77.76,6.1,1091.92
63.72,0.73,1138.18
62.62,-38.33,1184.2
32.84,7.69,1100.46
41.14,-16.97,1117.31
125.49,-25.27,1188.11
18.68,15.38,1078.37
61.16,10.86,1097.9
73.12,-47.12,1195.07
87.4,25.51,1098.02
67.26,-25.76,1155.03
65.55,2.81,1087.28
82.15,-32.96,1158.69
81.67,9.4,1079.96
72.75,-14.53,1149.41
93.99,-38.21,1158.45
83.98,-25.39,1153.32
74.34,-6.71,1123.9
75.56,26.12,1079.1
45.41,8.42,1079.22
47.61,119.26,924.93
98.51,60.42,1020.63
70.31,99.24,955.93
78.37,34.18,1060.91
89.97,67.38,997.56
71.9,-7.2,1112.55
66.04,35.89,1029.42
90.33,-59.69,1203.61
91.43,30.76,1088.99
78.12,-21.85,1188.35
106.57,-7.08,1146.12
58.11,-108.89,1230.83
125.24,52,1077.39
24.9,38.82,1005.25
101.93,-47,1191.89
92.16,-1.83,1148.8
78.25,-22.22,1161.62
59.33,-42.6,1172.24
86.55,42.85,1030.15
85.45,12.57,1090.33
97.29,52.37,1019.29
75.07,49.07,1025.88
66.77,39.79,1039.55
83.37,29.05,1069.82
77.03,-12.21,1114.75
94.6,-6.71,1131.71
64.09,-21.48,1137.33
91.67,-20.26,1142.58
128.91,-124.76,1224.98
100.22,-59.69,1223.88
23.44,-47.49,1204.96
93.75,14.28,1105.59
91.67,81.42,975.22
73.49,34.3,1046.75
72.14,17.58,1102.54
50.17,43.7,1021.61
99.37,57.13,1038.09
88.99,-15.38,1132.81
61.65,-113.77,1274.05
41.38,-51.27,1165.89
113.04,0.24,1173.34
42.97,-135.5,1328.98
81.91,1.95,1116.7
83.62,12.08,1118.77
47.12,3.05,1084.35
61.65,45.04,1026.98
94.85,-50.78,1165.16
107.42,-96.56,1275.15
33.08,-48.58,1212.16
102.17,-1.59,1132.32
99.73,-33.08,1164.31
72.63,-3.91,1106.69
83.25,-17.33,1127.08
70.8,-1.83,1100.95
91.19,1.22,1110.6
93.26,-14.53,1121.34
121.09,35.16,1015.38
60.06,54.32,1033.2
74.22,50.78,1029.17
99.98,64.82,990.72
92.16,57.86,1014.53
89.36,81.3,966.55
95.7,88.13,962.77
74.34,28.08,1065.06
85.08,57.13,1004.15
101.2,6.47,1119.02
56.88,-32.96,1213.5
11.23,-123.41,1323.24
85.45,-7.32,1164.67
122.8,-1.59,1100.46
70.92,-192.75,1402.34
108.4,36.13,1051.76
62.74,15.01,1085.57
81.91,-36.74,1178.22
84.11,38.45,1088.62
102.54,9.52,1125
19.17,28.69,1044.92
46.51,-2.81,1126.71
85.33,20.63,1069.46
77.64,-25.39,1138.92
99.98,-5.49,1131.71
78.49,-17.94,1126.83
80.08,-3.91,1111.94
89.72,13.67,1090.09
69.21,-42.11,1142.7
104.86,62.26,1012.57
53.47,15.5,1103.27
62.74,-21,1168.46
68.36,5.74,1119.02
74.95,-13.67,1130.37
79.83,-7.57,1132.08
61.65,24.05,1099.37
93.99,-8.18,1110.96
93.87,37.35,1031.13
76.78,12.08,1123.78
-3.3,9.64,1177.12
153.56,-135.38,1289.67
60.18,105.47,940.06
88.38,205.93,811.04
79.1,-33.45,1165.53
124.02,40.53,1066.41
49.07,7.93,1117.92
76.54,-6.35,1105.1
84.11,37.84,1057.86
64.45,-1.1,1116.7
115.72,14.89,1086.67
101.81,-27.95,1172
69.46,-8.79,1118.77
97.78,2.81,1110.11
101.56,-37.35,1183.72
74.58,-21.36,1128.54
89.6,3.05,1104.61
91.31,-4.15,1110.11
9.16,28.81,1076.17
46.51,97.29,969.6
74.22,11.35,1101.07
61.28,54.93,998.41
87.65,23.32,1103.64
89.48,52.86,1026.61
72.14,-28.2,1172.12
70.07,-47.61,1201.42
62.74,-68.48,1231.45
91.06,-3.78,1123.29
16.48,52.73,1070.19
53.34,-75.07,1247.19
29.91,3.91,1117.07
-15.38,-91.19,1213.5
152.71,-19.78,1205.57
22.95,28.56,1016.97
112.79,15.26,1112.79
90.09,-11.6,1125
97.78,5.62,1118.53
52.98,57.37,1048.71
24.17,-18.68,1133.67
77.88,43.46,1034.79
112.92,35.4,1053.34
99.61,21.36,1083.5
105.1,24.66,1071.41
80.08,-3.54,1102.66
78.86,-9.03,1121.58
72.63,-14.4,1136.47
69.46,-67.5,1237.92
93.87,-51.76,1208.98
69.34,-111.57,1292.85
77.76,-97.29,1292.97
88.87,-25.88,1126.71
96.07,98.27,935.91
94.24,66.65,988.4
70.43,41.14,1030.03
112.55,65.06,998.9
88.13,-4.52,1097.53
30.03,79.83,1030.27
-45.17,80.93,1029.3
-16.97,42.48,1072.88
39.79,36.99,1005.25
205.69,49.8,1042.72
59.81,31.98,1092.16
52.25,11.72,1097.53
123.29,27.83,1055.66
103.76,-1.95,1129.39
88.5,-0.37,1093.14
81.54,-10.74,1146.36
85.94,-62.38,1212.28
90.45,-4.52,1150.39
70.31,-28.81,1150.88
86.43,-22.46,1139.28
97.66,18.43,1095.21
82.64,9.64,1110.96
82.89,-9.28,1128.66
62.26,29.91,1097.41
145.26,11.96,1084.84
123.17,-52.12,1183.11
104.86,1.34,1092.16
108.89,109.5,916.38
82.03,116.33,909.18
79.22,122.07,899.17
90.09,86.06,957.52
101.2,115.97,877.69
97.78,100.83,962.16
92.16,100.95,921.63
109.13,-45.29,1119.87
41.38,-61.89,1188.48
90.45,-33.45,1268.43
34.3,-50.05,1167.85
90.58,-75.81,1215.45
66.65,30.27,1088.99
94.48,-9.52,1122.31
109.38,4.64,1119.63
120.24,-34.18,1161.13
45.78,-8.3,1117.43
45.29,-37.6,1191.04
99.61,-1.46,1132.93
63.23,13.43,1072.14
64.09,-7.2,1098.14
96.44,-24.41,1147.46
96.92,0.37,1103.39
71.66,-1.34,1115.11
71.53,-18.07,1120.85
86.3,63.6,1021.73
19.29,81.05,1008.06
47.61,50.42,1041.38
66.04,67.26,987.18
65.43,65.67,1008.06
100.71,58.47,1012.94
73.85,-2.93,1112.43
87.65,41.99,1045.41
99.49,-10.01,1102.29
84.35,26,1037.48
148.68,-53.1,1126.22
122.92,-192.02,1375.24
12.33,-72.27,1252.81
166.26,175.17,866.33
26.73,108.52,876.71
44.43,38.09,1011.23
79.71,15.01,1092.65
58.23,-23.56,1159.55
125.24,-11.6,1114.62
88.99,52.25,1024.05
72.51,53.1,1000.98
82.89,49.07,1017.46
103.76,28.2,1056.27
70.8,15.14,1105.1
102.54,19.17,1085.21
77.15,0.49,1110.6
67.38,-20.02,1135.86
76.78,-10.25,1122.44
53.1,-65.8,1236.08
74.1,-133.06,1310.3
149.17,-41.14,1160.4
82.76,94.48,941.53
59.81,-5.98,1096.56
110.11,130.62,865.72
95.21,71.41,986.21
136.96,94.85,959.84
104.37,-1.59,1093.63
75.32,38.45,1052.12
35.77,97.78,996.22
4.27,127.69,920.41
23.19,66.04,989.5
-3.05,102.54,887.33
89.36,232.79,760.38
150.39,56.64,1021.97
17.21,25.02,1088.62
30.27,42.85,1034.67
100.71,6.84,1082.76
121.58,81.18,974.12
86.3,63.11,1005
91.31,47.36,1015.5
65.92,12.82,1091.55
83.01,-32.23,1167.6
82.52,8.18,1109.25
97.41,22.58,1089.11
88.75,-7.45,1131.23
78.25,-8.54,1117.07
82.15,-17.7,1142.33
139.28,-99.12,1186.16
80.93,-30.88,1167.36
35.52,-71.17,1255.62
67.63,-18.31,1177.86
66.16,-103.64,1317.63
75.56,44.8,1040.65
67.38,115.72,908.57
100.59,82.76,970.46
95.95,76.66,971.68
83.74,46.51,1013.67
129.76,-15.5,1057.74
118.29,-17.94,1096.44
16.6,-51.51,1299.19
77.76,-114.14,1335.82
50.29,-87.65,1229.25
66.28,-5,1148.44
65.31,-3.3,1103.03
110.96,-32.1,1144.04
49.68,45.78,1039.79
54.93,-4.52,1114.62
93.14,41.38,1072.27
89.11,-6.1,1140.38
59.94,21,1073.61
75.07,-14.77,1136.11
81.67,-26,1149.29
88.99,-12.94,1133.3
81.67,-4.27,1125.49
97.66,-23.19,1149.29
30.76,15.62,1123.05
82.4,-29.05,1158.08
86.18,40.65,1048.95
117.31,110.84,920.9
86.3,2.2,1085.82
83.13,89.48,950.07
91.19,123.17,877.08
93.87,34.67,1050.54
81.79,-64.7,1229.74
87.16,-15.87,1141.11
2.32,-33.94,1245.36
129.76,-86.55,1234.38
112.92,-13.79,1077.27
62.5,146,886.6
39.31,130.74,836.43
77.64,-22.71,1080.93
88.13,-21.24,1171.02
80.08,-0.49,1130.13
79.71,-4.39,1112.79
102.78,38.21,1060.91
85.33,13.55,1028.56
104.74,48.1,1042.6
67.99,-5,1117.8
104.25,20.14,1085.94
82.28,27.1,1066.89
73.73,-2.32,1101.68
82.28,2.2,1108.28
80.93,15.01,1104.37
67.99,-83.13,1226.32
69.09,-105.71,1308.84
66.16,-86.55,1225.22
78.12,-61.04,1175.9
63.23,-57.01,1218.26
55.42,-64.7,1225.22
110.23,26,1081.67
111.82,87.16,971.68
93.87,44.92,1028.08
85.69,58.96,990.48
127.69,33.94,1005.37
41.26,67.99,1010.86
46.75,84.72,947.63
114.99,-83.74,1184.94
39.67,-130.25,1324.1
71.41,-0.61,1173.22
44.8,-50.05,1197.63
124.63,5.62,1098.63
93.38,-5.37,1121.34
97.17,-13.79,1102.91
60.3,-23.07,1161.5
90.33,-64.33,1228.39
57.62,-40.89,1162.35
63.72,-36.25,1177.25
89.72,-41.14,1163.21
90.94,-11.23,1133.54
86.3,2.93,1112.67
90.58,32.1,1076.29
30.27,32.1,1070.8
89.36,112.18,942.99
112.92,79.83,959.72
129.27,63.23,975.83
113.28,83.74,949.83
87.65,66.89,961.55
72.02,50.05,1025.76
96.19,48.58,1019.04
87.28,17.94,1098.39
99.12,45.29,1048.34
67.75,19.29,1086.06
95.09,-64.58,1234.38
56.64,9.64,1107.67
71.41,-45.78,1269.04
102.54,-119.14,1338.01
31.62,-84.11,1219.97
74.71,8.06,1125
77.15,-1.1,1120.61
93.63,10.38,1090.45
120.97,-45.53,1192.99
45.17,-59.33,1190.06
127.56,3.78,1113.28
102.17,-34.42,1184.57
80.69,3.42,1099.49
91.06,4.03,1101.81
75.2,-46.88,1165.41
89.36,-15.75,1136.6
83.01,0.98,1105.47
93.02,-6.1,1127.69
90.94,52.98,1027.1
57.98,77.76,985.96
69.58,36.13,1061.16
65.43,48.1,1019.78
72.27,93.51,976.93
77.39,96.8,966.55
73.85,67.14,1003.17
113.89,51.15,1013.31
100.46,19.17,1057.74
79.22,36.62,1036.13
103.64,30.15,1079.35
-1.46,-76.78,1283.57
37.6,-71.66,1221.31
-13.43,-161.5,1379.64
135.25,-112.43,1313.48
42.6,-24.17,1065.55
79.59,4.76,1085.45
100.71,2.44,1110.23
86.79,35.16,1057.13
98.14,53.96,1024.05
41.87,-20.39,1110.96
85.57,31.62,1057.25
100.95,10.99,1087.77
95.46,29.79,1086.06
113.65,5.13,1105.35
68.73,12.33,1070.43
76.9,-0.73,1118.04
74.22,14.28,1079.83
60.91,0.49,1092.9
73.49,15.38,1096.31
94.6,57.01,1034.67
72.75,40.77,1037.6
101.32,32.84,1050.42
74.34,101.32,942.75
112.43,0.98,1107.91
96.31,72.02,986.33
77.03,-60.18,1211.3
77.27,-139.16,1346.44
82.89,-59.33,1209.11
23.44,-15.75,1200.68
140.38,-22.09,1099.98
31.01,98.27,844.24
87.65,218.99,733.52
153.2,9.03,1069.58
61.52,-52,1217.53
57.98,-15.75,1141.36
73.73,-56.88,1176.03
109.5,-10.86,1083.01
111.08,33.2,1052.12
72.39,-24.29,1143.92
92.9,36.5,1058.23
80.69,-5.86,1125.49
82.76,-2.32,1131.71
95.21,29.42,1077.88
71.9,-5.74,1111.57
72.51,-26.37,1135.13
99.12,-5.98,1122.19
154.54,-58.96,1176.64
87.16,35.28,1054.32
33.2,-80.2,1230.59
154.66,-70.07,1232.18
47.36,103.88,952.64
44.92,6.84,1116.58
109.99,137.57,890.99
77.51,108.76,915.77
94.97,118.29,916.63
95.09,74.58,979.25
83.5,-2.44,1049.56
15.01,20.51,1106.93
63.23,-5.37,1146.24
78.37,-252.08,1490.72
70.68,-86.3,1276.12
59.08,-99.61,1263.43
47.85,-10.01,1107.06
114.26,27.1,1061.77
92.77,-7.32,1130
89.6,-47.12,1180.18
47.24,-64.58,1227.54
99.24,-30.52,1191.65
71.41,18.31,1079.1
81.05,-24.66,1160.28
63.84,-13.92,1117.07
101.68,4.76,1110.84
91.92,10.74,1084.35
93.87,-19.41,1129.52
62.38,-41.14,1159.79
72.27,45.41,1007.32
78.49,23.56,1094.48
45.78,-42.36,1169.43
53.59,37.96,1029.54
63.96,-94.36,1287.96
55.3,-123.54,1312.99
83.74,-58.11,1193.73
79.1,-60.55,1219.85
90.82,-17.21,1133.42
67.14,33.69,1054.44
49.8,68.6,1017.94
49.8,17.33,1081.3
26.37,-103.64,1270.51
87.16,-1.83,1180.18
48.1,-46.14,1190.43
66.89,-22.58,1149.66
92.9,12.45,1100.46
45.78,-24.29,1130.49
101.81,-32.84,1197.63
47.24,-52.37,1195.92
102.05,-47.49,1196.53
79.22,3.66,1116.46
96.19,-23.8,1155.76
82.4,-24.05,1133.91
79.1,-6.1,1127.93
69.82,17.46,1091.06
96.8,5.98,1119.75
117.31,78.74,981.2
67.75,118.04,911.01
82.76,54.32,1009.77
150.63,7.57,1052.25
119.51,-26.49,1146.61
86.06,87.65,979.74
81.3,88.38,946.29
112.92,86.43,964.48
99.12,58.59,993.41
87.28,70.8,968.51
126.1,31.37,1026.25
7.69,116.33,951.66
17.94,61.65,990.11
155.76,-131.96,1290.77
-6.1,-201.78,1401.98
63.23,-16.72,1192.99
104.13,-2.08,1097.66
73.61,-8.79,1138.06
66.53,-13.43,1116.58
57.37,-7.32,1149.41
74.1,-24.78,1187.38
81.42,-48.46,1178.1
73.12,-17.82,1144.29
95.46,-18.19,1115.6
104.61,5.49,1099.37
93.75,-29.3,1146.61
85.08,0.24,1107.3
79.47,34.67,1068.24
51.76,25.88,1072.88
62.87,126.95,922
118.9,85.82,957.76
92.53,13.92,1067.75
101.68,-22.22,1139.89
73.36,30.15,1070.68
75.68,57.74,1016.48
105.22,50.42,1028.2
107.67,104.49,927.12
73,14.53,1067.75
77.64,76.78,987.67
127.81,-79.1,1216.43
123.78,-134.16,1321.04
-24.54,87.65,908.33
11.35,76.54,948.85
180.18,12.82,1042.85
144.78,62.26,1009.4
60.79,49.07,1042.85
59.2,-15.62,1103.88
117.43,11.84,1100.1
123.05,26.98,1092.16
69.09,19.41,1078
85.57,34.3,1050.78
68.48,10.38,1096.44
71.41,34.06,1055.66
63.96,-26.25,1149.66
95.46,7.08,1095.58
74.71,-9.16,1109.86
103.39,-2.69,1106.2
68.85,-65.55,1175.05
51.27,-78.61,1273.68
82.89,4.03,1120
91.92,5.49,1096.56
95.58,48.34,1021
64.45,-10.99,1149.9
68.97,18.68,1074.46
78,-54.69,1208.13
81.79,-67.75,1246.34
88.99,-15.26,1134.64
125.85,-91.67,1215.94
50.42,53.1,1025.51
52.61,41.14,1051.51
152.83,242.43,745.24
14.77,152.71,870
46.39,-49.56,1197.75
76.29,-25.88,1165.89
90.33,-7.45,1130.13
76.78,-35.03,1129.64
77.27,-40.04,1152.59
75.93,64.58,1009.89
70.8,13.55,1110.35
69.95,-36.87,1166.38
76.66,21,1092.41
88.99,11.23,1077.51
103.03,14.89,1095.83
85.21,3.42,1108.03
57.5,-29.17,1158.57
65.43,-79.47,1239.26
67.14,-70.8,1237.92
96.31,-18.8,1104
84.96,-18.07,1147.09
81.18,-108.28,1270.87
95.46,9.77,1084.23
72.75,99,938.84
68.36,101.56,964.6
93.02,42.11,991.33
86.55,67.63,961.18
128.54,65.43,957.4
64.82,-10.86,1084.59
15.87,5.37,1194.21
108.89,-103.03,1266.24
-9.64,-163.57,1369.75
83.74,36.38,1116.82
99,15.14,1047.24
101.81,21.85,1054.32
77.15,9.16,1114.26
56.52,-58.96,1206.79
83.5,-52,1203.25
80.2,-73.85,1229
64.94,-13.92,1127.81
104.13,19.65,1080.44
81.91,-26.98,1145.02
97.17,-6.1,1123.78
75.81,-8.42,1125.49
86.06,24.66,1088.5
35.16,25.76,1063.23
174.32,-0.37,1070.56
153.08,74.22,959.96
134.89,1.22,1107.79
135.5,-41.99,1189.58
56.4,57.37,1003.54
114.75,51.88,1025.02
52.37,-16.11,1193.36
52,-88.62,1275.76
73.12,-45.04,1198
103.39,48.58,986.45
140.62,97.53,913.7
133.91,42.97,1002.69
0.98,51.15,944.95
70.56,160.28,842.77
132.81,-72.27,1203
57.98,-44.19,1213.01
52.49,-36.13,1180.66
75.81,-39.18,1150.63
107.18,38.33,1031.86
99.61,45.9,1015.5
90.09,60.79,999.39
74.58,27.83,1076.9
75.44,31.13,1044.56
80.32,6.1,1103.76
81.18,-11.6,1122.56
88.99,-12.7,1139.4
75.44,-12.45,1129.52
95.46,-29.66,1142.7
85.33,-97.41,1197.14
30.76,-64.7,1262.7
41.63,-65.19,1214.48
60.42,-65.19,1236.33
62.87,-57.62,1220.46
84.11,-95.09,1263.67
104.98,-46.63,1158.2
91.55,15.26,1083.13
90.82,-9.28,1130.37
98.75,33.45,1036.87
76.42,-6.23,1130.74
47.85,-14.65,1098.02
101.68,-8.06,1223.88
20.87,-112.18,1285.16
71.29,-46.14,1185.3
79.83,6.96,1125.73
97.05,11.23,1070.19
114.26,30.64,1071.78
98.75,-25.27,1138.55
43.33,-57.25,1199.1
128.66,-19.41,1150.27
76.9,23.32,1055.66
64.33,-9.16,1126.59
102.91,23.19,1083.25
87.4,5,1094.48
87.4,2.69,1094.12
79.59,17.21,1087.16
89.97,-2.2,1107.42
85.33,83.01,992.19
73.36,86.67,952.03
78.61,-1.71,1056.27
-0.49,-76.29,1301.27
-59.81,-11.23,1205.93
150.51,-183.35,1408.57
63.72,148.8,886.72
77.88,53.47,1011.6
107.67,81.91,969.12
92.41,22.22,1046.88
44.31,80.69,990.36
6.96,23.56,1127.08
55.91,-12.33,1122.07
3.17,-108.52,1249.63
137.21,-102.17,1312.13
44.56,-5.62,1093.14
105.71,-2.56,1100.1
83.13,14.89,1093.99
72.27,47.36,1064.21
52,80.44,974.98
43.82,14.16,1086.91
85.45,39.92,1017.33
72.75,22.34,1061.4
113.4,30.15,1077.39
86.79,16.85,1076.54
90.58,-14.16,1124.51
78.74,-16.36,1134.28
85.82,-14.77,1138.31
102.54,-39.79,1160.89
85.57,-37.23,1169.68
17.21,-43.82,1194.82
80.69,-160.52,1338.01
68.48,-123.9,1351.68
62.62,33.69,1062.5
133.3,136.72,862.55
135.86,73,971.8
96.31,98.27,934.08
106.45,104.74,942.63
48.58,62.62,1005.13
115.11,-157.35,1348.02
117.8,-126.83,1304.81
119.87,123.78,953.98
71.66,85.69,906.25
94.85,47.12,987.92
112.18,10.38,1079.96
47.73,0,1094.85
87.52,26.73,1089.72
56.27,-31.25,1169.68
66.53,-77.27,1223.63
87.77,-1.34,1105.35
71.53,-37.11,1164.43
102.78,8.3,1090.45
113.04,17.46,1070.56
101.56,-5.62,1119.38
81.79,3.05,1119.51
67.63,0.85,1112.67
41.87,0,1128.66
32.84,73.61,1020.02
72.51,93.38,1011.23
77.39,-9.28,1163.21
145.26,155.27,810.67
88.62,185.91,773.68
89.23,193.24,739.87
110.6,65.19,972.66
118.77,153.08,814.45
105.71,65.31,1004.88
66.65,-91.31,1277.71
169.43,-127.44,1311.16
43.33,8.67,1090.33
62.74,108.52,1005.98
27.34,178.47,760.99
169.68,26.25,1047.85
133.42,93.51,953.12
47.49,4.39,1120.48
73.24,26.12,1062.74
104.49,-27.47,1161.25
118.53,4.76,1122.31
105.96,-84.35,1243.53
74.34,0.24,1109.99
70.19,55.05,1018.68
85.45,4.88,1097.78
58.11,-13.55,1122.56
73.49,0.49,1110.35
79.22,-10.13,1120.85
111.21,-28.69,1162.84
115.23,-60.79,1135.74
66.04,5.86,1119.51
59.94,141.24,889.04
25.51,239.01,761.47
213.62,114.75,839.84
108.64,-91.19,1261.72
17.33,-189.82,1459.72
69.58,-118.9,1324.71
69.95,35.89,1053.96
51.51,-61.52,1228.39
2.32,114.75,939.45
32.23,142.09,916.26
91.55,81.42,940.06
190.43,285.4,681.4
-12.08,109.62,893.43
73,-112.43,1269.41
86.91,-63.11,1227.05
77.39,25.39,1057.98
69.58,-7.2,1109.13
78.86,45.78,1036.38
78.25,85.69,960.82
101.81,45.78,1028.81
103.15,45.04,1021.12
79.83,5.13,1112.55
76.9,-12.08,1126.34
78.86,-17.09,1142.33
88.38,-13.18,1129.15
59.33,-5.25,1125.12
37.72,14.04,1114.38
5.37,-62.74,1211.79
160.77,-149.66,1314.94
-17.82,-69.7,1323.36
53.83,78,993.9
73,-42.11,1200.2
144.17,138.55,850.1
102.42,166.99,811.65
100.95,172.61,802.61
112.92,99,914.31
80.08,-71.04,1229.98
178.83,-74.95,1187.87
43.7,41.87,1047.61
44.43,-160.03,1346.31
102.42,-34.67,1194.82
25.39,-3.66,1070.07
98.27,-13.43,1191.65
63.35,-61.4,1231.2
100.34,-14.28,1117.68
88.87,82.64,968.38
55.3,25.51,1047
94.6,83.98,969.36
94.12,57.62,1016.36
109.01,35.03,1059.69
72.02,19.17,1065.31
81.42,-19.9,1133.42
85.21,-19.78,1141.36
73.97,-7.69,1126.1
68.12,-47,1139.53
113.28,20.14,1083.62
7.69,-11.47,1089.6
180.18,-235.72,1409.91
-129.64,-255.62,1630.13
15.38,-55.91,1216.06
167.97,178.1,717.29
138.79,199.1,729.61
78.86,186.04,772.83
134.16,114.87,916.26
46.02,-53.59,1234.01
50.42,-127.2,1321.04
77.64,-156.01,1373.05
149.17,-9.64,1153.2
76.29,35.89,990.84
52.98,37.11,1012.94
76.42,23.32,1059.2
85.94,-28.2,1163.45
81.42,9.64,1107.91
125.12,5.74,1105.35
95.83,-72.88,1220.46
65.92,5.74,1093.26
61.4,-28.32,1139.16
106.32,4.03,1106.57
80.2,1.22,1085.69
81.79,-25.63,1142.21
86.18,-4.52,1116.7
64.7,3.05,1097.41
69.21,25.15,1070.8
80.81,64.09,1040.04
133.42,29.54,1044.07
70.19,184.94,863.53
122.8,46.63,1026.25
14.89,297.85,697.88
73,129.39,900.27
95.34,162.6,810.3
48.46,15.99,1110.23
55.42,69.34,999.76
70.8,-20.63,1186.04
123.54,-25.51,1153.56
87.04,-195.07,1380.13
100.59,7.57,1142.7
53.71,60.3,934.08
66.41,-75.56,1178.34
131.35,49.19,1056.76
52.12,-20.02,1142.21
71.53,-46.51,1167.97
96.07,-10.74,1166.99
94.12,39.06,1041.14
93.38,70.56,988.77
84.59,32.71,1051.03
70.92,43.58,1024.78
85.33,11.11,1092.9
79.59,-7.2,1118.53
82.03,-8.79,1123.9
87.89,0.98,1116.82
88.13,-26.61,1134.03
65.92,87.04,1010.74
101.44,61.77,987.18
95.46,59.57,1043.82
-168.58,392.46,619.51
72.02,219.48,651.61
126.59,300.9,588.87
96.19,101.07,948
45.29,-118.04,1358.89
93.02,-205.57,1455.81
85.57,-84.11,1240.6
127.81,-105.22,1252.08
-5.62,23.19,1063.11
57.37,87.16,950.44
-16.72,-80.32,1235.84
100.46,-2.2,1202.64
60.55,-52.49,1207.03
49.93,-14.53,1140.5
97.41,34.91,1062.38
78.12,-36.25,1144.29
78.61,-42.72,1203.37
33.33,-57.25,1204.1
109.5,-42.48,1206.42
70.31,1.34,1097.29
84.72,-22.71,1150.63
73.12,-17.21,1127.2
102.66,6.84,1105.96
90.09,19.29,1079.22
82.15,-5,1121.7
149.54,59.57,1005.13
82.03,74.34,981.69
56.76,-38.7,1239.14
380,34.42,907.47
269.29,307.74,508.54
5.98,137.21,917.85
105.22,213.75,712.65
120.12,-47.97,1157.84
32.35,-157.23,1425.66
43.21,-141.36,1357.06
137.57,-25.02,1089.6
42.72,73.12,962.16
47.36,109.5,876.22
-5.49,62.26,1000.12
1.34,162.48,802
42.72,34.06,995.24
111.45,9.28,1139.28
75.93,-31.49,1170.29
68.73,8.54,1117.07
74.34,39.79,1001.83
59.81,18.07,1037.96
101.81,75.68,995.73
94.73,37.48,1037.72
88.62,18.92,1070.92
100.46,19.65,1080.81
74.95,-11.96,1119.63
85.94,-13.55,1145.02
60.42,-22.22,1155.76
52.12,-65.06,1206.91
62.26,-104.25,1252.2
41.75,-144.04,1313.84
182.86,-360.35,1636.11
213.75,-234.01,1463.38
90.21,216.92,684.2
74.95,302.98,594.6
113.04,71.17,984.86
94.73,174.8,787.23
83.13,24.05,1088.62
84.59,55.05,1022.71
52.61,-156.13,1382.69
65.19,-121.46,1314.45
149.66,50.78,1030.4
63.84,49.07,970.83
90.94,49.32,1019.17
68.24,-18.07,1121.83
60.18,-49.19,1174.32
82.89,-9.77,1163.45
87.04,13.55,1086.79
53.71,-64.09,1206.42
78.61,27.59,1072.75
101.68,41.87,1041.75
105.59,6.47,1103.15
96.31,10.38,1084.23
76.17,-1.46,1102.42
89.23,0.49,1111.69
80.32,21.85,1067.99
65.8,33.33,1088.5
97.29,60.55,1048.46
87.04,36.38,1084.35
38.21,149.9,957.89
-122.56,65.06,1150.27
22.58,272.58,716.92
156.62,216.92,729.86
92.53,-32.84,1152.34
102.42,154.3,845.09
82.52,-67.38,1209.59
88.75,-122.92,1344.97
109.74,-14.53,1094.48
118.16,145.02,869.63
114.01,-36.13,1067.63
29.42,-114.5,1313.96
78.86,-38.57,1230.96
47.24,-69.7,1227.05
101.56,-15.5,1129.27
59.33,-1.34,1113.53
70.68,-52.25,1176.15
93.87,-33.2,1158.94
102.54,-57.13,1205.69
63.84,-30.4,1162.23
94.36,-19.41,1150.63
87.77,-11.72,1123.9
78,-5.37,1101.81
88.75,2.93,1104
81.05,28.32,1072.63
79.22,33.45,1060.18
115.84,72.63,1014.65
95.95,13.18,1106.2
59.81,106.81,1034.42
111.82,237.67,654.79
82.89,211.3,783.33
135.01,243.9,685.18
110.11,19.04,1064.82
65.06,-208.01,1441.89
44.07,-192.5,1488.4
50.42,-3.05,1130.37
19.04,-24.78,1177.12
112.18,139.89,880.62
95.58,21.48,958.13
175.42,251.22,705.44
95.58,21.61,1073.73
87.4,58.96,1039.55
75.81,-7.08,1116.09
89.6,-27.71,1162.6
88.5,7.08,1093.51
96.92,53.96,1012.94
94.12,33.2,1057.62
70.56,49.44,1024.29
73,30.64,1034.55
90.82,57.98,1006.1
89.23,12.57,1080.2
84.11,16.48,1077.39
76.05,-22.46,1144.41
91.67,-25.63,1143.19
85.08,-106.2,1262.08
77.88,-88.99,1241.46
74.22,-158.45,1347.78
189.7,-233.76,1471.68
104.25,-38.21,1129.39
97.53,151.12,801.51
111.45,159.67,824.34
130.62,155.88,831.54
76.42,111.94,916.26
